-3.7861,3.3955
-3.657,7.7038
-5.3045,1.8507
-7.1737,-5.0243
-5.8558,-5.1252
-6.8397,-6.445
-3.211,-5.9681
-5.3566,-6.9125
-5.2422,-6.9359
-3.1983,-1.6218
-7.8899,-5.7395
-2.6741,-5.9781
-3.7035,8.2585
-3.873,-1.6708
-2.8386,-6.4195
-4.5631,2.3547
-3.8025,3.9146
-3.9497,-6.2222
-3.6536,3.0071
-3.7911,9.5717
-6.132,-6.0681
-0.85979,-0.5328
-8.0521,-5.1015
-3.0816,-1.978
-2.2598,-1.293
-1.103,1.5787
-7.4397,-6.222
-4.1558,3.2088
-2.3768,1.1317
-1.4188,-1.301
12.768,-10.798
12.118,-9.8767
10.431,-10.809
12.094,-8.4239
13.767,-9.4621
12.459,-11.248
13.379,-11.129
9.6102,-11.696
9.9526,-12.165
12.923,-11.913
9.8033,-11.147
10.649,-12.762
12.992,-9.2384
12.6,-9.9482
11.292,-9.5289
12.849,-10.613
13.747,-10.711
12.066,-11.438
12.632,-8.0599
11.855,-11.85
10.426,-11.319
13.905,-10.137
11.626,-10.502
11.038,-10.179
12.579,-9.2208
10.873,-10.8
10.798,-11.708
11.414,-11.255
11.217,-11.98
12.069,-10.639
-4.9434,1.0945
-6.5303,-5.7974
-4.732,-4.9281
-4.8383,-5.9571
-5.3121,-4.4785
-4.5886,-4.4268
-2.4085,-9.272
-4.5358,3.7367
-6.3106,-1.9848
-3.1681,-7.8464
-3.7744,-7.1086
-5.9353,-0.43726
0.81181,-4.6498
-7.6487,-4.8519
-5.8261,1.1561
-4.9545,-5.938
-5.1111,-3.634
0.68239,-4.736
-5.0074,-4.1447
-5.7774,-2.0454
-4.4014,9.5377
-3.7764,10.096
-5.0894,1.4227
-2.5976,-8.9618
-3.6298,9.5983
-5.5273,-3.9185
-4.9099,-2.1785
-4.3472,3.6963
-4.7988,2.9026
-6.8826,-5.512
2.9651,3.2026
2.1258,3.2616
2.096,-0.64433
-7.582,-1.8458
2.9145,2.5928
0.022349,-4.7599
4.3475,3.9262
2.8052,2.5242
3.1512,4.6158
2.9644,4.3371
0.1754,1.3449
3.0843,1.6473
-2.6364,1.1308
1.5678,-4.1137
3.6187,5.57
-8.1131,-6.1838
1.3981,-4.4454
2.1443,-1.096
-0.46967,6.4511
-3.5221,4.8236
2.5464,0.40937
1.9455,2.2668
1.4179,0.28033
3.1379,4.4172
2.851,-1.5084
3.267,3.3736
1.6059,-0.78617
2.0228,-3.0298
3.1408,1.2947
2.3628,1.6254
-2.9026,7.9788
-3.0732,7.9827
-2.5696,8.8458
-3.6307,-3.4048
-4.8638,9.908
-4.8575,10.66
-3.2176,9.3706
-5.1404,8.8037
-7.9513,-4.4768
-6.7346,-3.9023
-0.77123,1.9498
-2.7288,-1.0891
-1.5315,4.7405
-7.0361,9.6777
-6.1027,9.7305
-5.3843,2.8051
-7.2351,-5.8391
-6.1013,9.8261
-3.0442,7.475
-6.3392,10.062
-4.3675,-2.5113
-7.3992,8.7328
0.23268,1.9605
-7.3911,9.1993
-0.61679,1.4966
-3.009,10.252
-6.3788,9.3278
-5.2498,10.594
-4.1772,8.7933
-5.6134,0.64771
9.5795,3.1537
-10.345,-5.0787
8.5386,4.265
4.7263,7.4669
6.4362,6.9787
6.0278,6.2642
5.646,5.9859
4.5748,5.7089
9.3983,3.0288
9.2158,3.5945
-8.8819,-1.4906
8.8256,2.8111
4.6102,5.613
6.5856,6.2543
6.3104,5.6981
8.9002,4.003
6.6368,5.5518
6.4156,3.8007
8.5512,3.4177
7.1037,3.6985
9.9981,1.2741
5.2223,6.9102
7.5811,5.2711
5.7112,7.4912
5.3832,7.2906
6.772,5.3878
5.4392,6.7451
10.003,1.2637
8.1679,3.4933
9.4159,2.982
-0.30864,8.3051
-10.114,-1.7752
-10.306,-2.2121
-11.596,-0.77439
-11.634,-1.1571
-11.162,-3.6122
1.3279,10.63
-0.76997,7.2716
-0.48965,8.1696
-12.154,-3.4432
-11.928,-2.0214
-0.5522,10.133
1.0086,9.6026
-10.14,-2.3494
-11.833,-1.9943
-11.834,-0.40977
0.28539,10.315
-0.7082,9.5756
-10.904,-3.1202
-11.254,-2.0746
-12.085,-1.0891
-10.716,-1.6912
-9.7387,-2.3972
-0.59283,9.9317
-0.50526,10.42
-12.146,-2.7749
1.0799,9.8334
1.3646,10.232
1.1081,10.482
-0.24292,9.5873
