2.5983,0.54597
3.6786,-0.35303
2.4449,-0.082845
0.15582,1.9281
0.6961,1.3685
1.8813,3.4605
2.5513,0.020631
3.0971,-0.0028243
2.8069,1.0145
3.6933,-1.8947
1.46,0.58289
3.9886,2.8561
0.2352,0.047465
4.4812,-0.86243
2.7468,1.4503
3.1461,-1.2765
0.70103,0.77939
0.80772,0.38791
3.9095,1.6242
3.9948,0.23504
2.8085,0.45264
4.1223,-3.2091
4.8281,1.6458
5.472,-0.76124
1.645,-0.37074
2.4407,1.1166
2.4696,1.2985
5.7838,-0.40506
1.9262,-0.90201
2.6291,1.3407
8.0372,-0.28024
3.4553,-11.461
3.3751,1.4341
2.7113,0.8791
6.1161,-0.072758
3.6838,0.95727
2.7163,-0.16304
5.7623,0.37268
3.5727,-0.26522
1.6796,0.03825
4.5529,-3.9571
2.3841,2.9241
2.8462,-0.4224
6.2062,-6.836
-0.37754,-1.9652
2.7378,-1.4275
2.1018,0.29838
2.5321,0.018948
4.897,0.030018
1.5863,1.4089
2.6688,0.15027
2.9799,0.46099
0.9253,-0.232
3.3148,0.65214
1.001,-0.5538
3.1416,-0.30608
3.375,-1.6473
-7.7726,-4.0136
2.5881,-1.0146
3.6808,-0.33758
2.5486,1.1623
1.1136,-0.3221
3.0377,1.2465
3.225,0.34317
3.3488,-1.5924
3.7608,1.4126
3.7097,0.58654
5.2288,-1.1576
2.2349,0.84531
1.2657,-0.037262
3.7146,-0.43584
2.4765,-0.26394
1.8057,0.25102
3.6241,-0.28855
2.3398,1.3655
3.5635,-0.18622
3.2335,0.1285
3.9531,-0.010692
4.5552,3.0809
3.6255,1.6468
1.4481,-4.2103
-1.3908,1.3802
6.7442,3.0194
2.678,-0.16361
3.0963,0.74319
1.3196,-0.66018
3.3305,0.33478
2.9296,0.2685
3.4876,-0.35799
2.5162,-2.1323
1.6933,-0.28494
4.1932,0.73652
3.1094,-0.31365
1.0537,1.0798
5.2845,-17.947
2.6839,-0.35717
3.0162,-1.0448
4.6968,0.46085
2.5276,0.62401
5.5288,1.1453
3.1546,-0.1063
1.1642,0.97101
5.8726,-1.2794
4.1619,-0.45081
3.395,-0.14144
1.5577,-0.51099
3.5428,-0.60371
3.4784,0.19744
2.4454,0.3373
3.7955,0.35062
3.4739,0.25198
3.4093,-0.89516
3.7113,-1.6442
0.56623,0.08299
-1.6134,5.5474
2.3183,-1.8736
-4.1834,-1.0043
2.7862,-0.097732
3.3908,-0.0047899
3.0418,-0.62802
3.2544,-0.56944
3.7675,-1.0634
2.6165,0.54048
2.8579,0.48796
3.165,-0.13056
4.1594,0.063617
3.2007,-1.7263
-2.7964,0.081853
5.2088,-1.2417
1.7262,2.0653
3.628,0.44392
2.7925,0.34266
5.0818,-0.66742
5.2063,-0.062329
3.4309,8.4988
1.3819,2.6574
2.4429,0.043879
0.74221,0.49168
-0.82826,0.35074
0.69219,-0.22951
0.51719,-0.6768
3.2981,0.16957
3.215,0.83253
0.19967,2.5999
2.3418,0.14315
3.7196,0.61618
3.169,-1.433
2.5888,0.6528
2.7244,-1.0464
4.4269,-1.0012
0.19041,-1.0076
3.1163,0.22608
3.5191,-2.1768
5.035,-1.1328
1.5823,-3.7106
2.9877,0.4176
4.0355,0.31598
6.3137,-0.36421
1.7219,-0.18715
0.0017697,2.0915
2.3794,-0.05144
2.954,0.060348
3.4432,-0.69085
3.1205,0.064788
2.5687,-0.14281
3.5898,-0.14022
3.1641,-0.46688
2.6129,-0.21759
3.0953,-0.093716
4.9043,1.9945
3.9505,-1.0321
2.6868,0.7724
2.0437,0.14721
2.597,2.1883
3.3044,-0.52381
2.6699,-0.55257
3.6975,1.9202
1.686,-3.2388
2.6069,-0.62194
3.4449,2.3099
1.4088,0.058704
6.5892,-15.862
3.1124,0.030732
3.877,0.19122
2.0918,1.1327
-3.5826,5.1884
6.3791,-0.98187
4.0204,0.50333
3.7157,0.54332
4.2629,-0.011947
1.1353,0.081309
2.0736,-0.80808
4.2873,-1.4134
3.9156,-0.78692
4.7871,0.23072
3.1404,-0.070578
3.5333,-0.33983
5.698,5.3162
2.7305,0.13618
2.9702,-0.059602
3.1558,-0.88622
3.1785,-2.1477
4.7761,-0.3707
3.8918,-1.917
2.572,-0.67152
4.2319,0.026279
2.2259,1.1584
2.7211,-0.43711
2.0495,0.20906
3.0036,-2.4475e-05
1.9368,-1.6981
11.475,-6.0065
3.4734,-0.11299
2.1131,0.75317
1.7195,-1.5465
2.7287,0.35519
0.57698,-0.97623
4.0516,-1.1412
2.0421,-3.4584
9.2438,-1.2658
3.446,-0.71601
4.4967,0.69711
3.4405,-1.9963
6.5148,-1.4235
2.8878,-1.2043
3.116,-1.0588
3.4497,0.28051
2.738,-0.33543
2.9587,-0.42152
4.0408,0.58712
0.92187,0.77612
3.1286,1.287
2.846,1.6538
4.2766,1.1927
2.4768,-2.4593
5.0181,-2.0043
3.8698,-0.21364
2.3963,-0.68836
5.3089,2.619
3.0887,-0.030324
1.5895,0.45888
2.8802,1.1274
3.6317,-0.10311
4.5305,0.64451
2.7904,-0.42404
3.7075,-0.64449
3.1991,-0.71972
4.4964,0.26014
4.293,-5.3097
5.1306,5.1784
1.5633,-4.3007
6.813,-5.4522
3.269,0.44046
4.3313,-1.9383
3.5336,-0.14452
4.3794,0.17325
3.1653,0.086427
2.434,-1.5879
3.476,0.44493
2.8605,1.9422
2.7624,0.74575
2.842,-1.3319
2.6729,0.11211
2.6745,-0.546
3.7776,0.23223
2.9405,0.88779
4.583,-0.63511
3.3673,0.50522
2.0055,-1.4905
2.9174,0.46931
2.7569,-0.38925
3.136,0.245
4.2466,0.42756
5.3847,0.65436
3.5971,-0.11694
2.4953,-2.8715
2.526,-2.0818
3.9234,-0.36248
3.3236,-3.5752
3.9163,1.4605
3.0835,0.30377
3.3541,-0.33634
3.045,0.40792
3.761,0.31873
3.3583,-7.7331
2.9059,-0.25148
2.3688,-1.2301
-7.759,-4.0562
1.3309,-6.9854
2.3946,0.20606
7.2081,0.3604
1.656,0.39461
6.9764,-0.63933
3.3811,1.2552
4.05,-0.33798
3.2004,-2.0364
1.6407,1.0888
2.3781,2.6791
2.2327,1.1818
0.37983,1.3363
3.4006,-1.2335
2.507,-1.2584
6.5696,-1.5032
5.5291,-0.47713
2.3937,1.0318
0.3559,-3.0832
1.7981,-0.096339
2.9977,-4.9407
3.1243,0.69971
1.4314,1.1198
1.6305,-1.7426
3.2397,-0.019275
2.8382,-0.75298
3.4039,2.6285
1.1833,7.7803
1.8008,0.38538
3.0557,1.5015
2.9604,-0.1266
2.5999,0.63085
3.5811,-0.4453
3.132,-1.9662
3.4619,1.5543
-4.5472,1.3174
3.3553,-1.0786
2.6926,1.3105
3.0822,0.59229
4.2642,0.36536
-0.60031,0.54247
2.1057,-1.3796
3.643,0.28015
4.0907,1.472
3.0155,-1.347
6.4123,-5.9343
5.2203,2.2043
4.0114,0.52667
2.4254,0.17412
3.5547,-0.7443
4.0558,-1.461
3.4721,1.4076
8.7315,-1.5817
0.92583,-1.8044
4.4487,0.49247
3.5579,-0.70992
2.5277,0.92713
2.4088,1.5979
4.2304,-0.044633
0.71943,0.93914
4.0909,0.039595
2.7264,0.56488
3.3731,0.80145
4.0662,-0.65957
1.1508,1.6632
-5.8199,1.5666
7.4198,-4.6747
3.3079,-2.6451
22.124,2.5589
3.4565,-2.1641
3.0818,-0.69577
1.8506,-1.0807
2.6799,0.71489
-0.19795,1.022
2.1681,0.70214
3.9597,-0.41185
2.0491,0.22059
2.2766,0.46342
5.7684,0.65949
3.7754,-1.4061
4.7772,3.2987
1.4886,1.4879
2.6122,0.15901
3.3267,-1.9514
4.4484,0.90752
2.2573,-1.5379
2.4344,-0.52328
1.6749,1.2279
4.0637,0.26114
2.8361,3.4647
-0.34389,0.19568
3.1034,5.261
1.5976,1.1612
3.4922,-0.6283
1.8677,-0.98721
1.0023,0.57088
3.2021,-0.28155
5.4191,-7.7357
1.9486,1.5584
4.2906,-1.2026
3.0398,-0.9775
3.0667,0.82449
7.7994,-4.6091
3.5749,-0.77821
-15.057,-29.972
3.2657,1.0722
2.9179,0.08755
3.5308,-0.55818
2.3227,0.67553
2.1411,0.032065
1.9848,-0.1476
2.833,0.42386
-0.24274,-1.347
3.0996,-0.67244
3.8847,-0.68402
6.1297,-2.0083
3.8802,0.41672
2.4381,0.23405
4.4789,-2.2423
2.7429,1.7974
4.0865,0.67751
3.0494,0.2973
0.47285,1.081
1.4762,-1.3097
-1.7923,-0.1845
0.19144,-0.37372
2.8884,0.32993
2.0077,-0.1295
-0.95827,0.49971
4.5955,0.53514
2.5235,1.1483
4.033,0.22083
2.6675,-2.7631
2.9269,0.19756
2.8329,2.2667
2.9687,1.2112
6.049,-1.6735
2.7152,-0.78325
5.2086,-0.32063
1.3049,-0.57817
3.266,1.045
1.7311,0.24157
5.9631,5.1291
-1.5249,-0.17896
3.1706,-3.182
0.043517,-5.7405
5.1416,-0.62133
3.4431,-0.78977
5.1568,1.0327
2.4819,0.39598
-0.57142,1.9539
1.645,-0.017164
4.1211,-1.8296
4.7428,-0.82634
5.1413,-0.11443
4.7098,-1.533
6.2671,-8.962
63.583,20.671
2.6436,1.0513
1.6114,-0.85011
2.3359,0.4416
1.1838,-0.26657
10.336,7.5504
1.7182,0.35383
2.1949,0.34243
6.236,-2.4346
2.4295,0.20346
8.1428,0.73278
3.0911,-0.52067
1.4338,3.6008
4.0372,2.9094
2.627,-0.39075
2.922,0.58709
3.0383,2.6143
8.552,-3.5592
1.6828,2.0402
4.2112,-2.3295
5.5366,1.7686
2.2968,0.23758
3.0507,-0.44455
-0.51078,-2.004
4.6622,0.62592
3.2344,0.53603
3.7348,2.4935
2.6958,0.44564
3.5809,3.543
2.3951,0.45279
-0.48935,-2.0912
3.1478,-0.12004
1.3021,-1.5539
3.0812,2.195
4.6748,-0.53147
2.8445,2.6063
-0.32813,0.19431
2.4469,-1.7676
4.11,-0.6212
4.8173,-0.7873
4.5186,-3.575
4.5363,0.40859
2.1679,-0.35735
1.414,3.1052
1.0699,6.5657
2.5199,-1.0041
0.69577,-0.2458
3.6728,-0.2343
2.5085,0.17535
4.2209,0.92536
2.6247,-0.017734
3.4223,-0.22564
0.7113,-0.66711
3.1025,0.6738
2.6433,-1.543
1.9946,1.0814
1.9749,-2.6925
3.3746,1.4623
2.9806,-0.48841
3.0224,0.90815
0.76549,-1.7612
3.3321,-1.2413
3.417,2.0791
3.9745,0.083392
4.3029,-0.26189
3.336,-0.98714
-2.7949,-3.6432
2.0708,0.77525
2.4533,1.4939
0.8879,4.039
2.8089,-0.030461
4.007,1.265
-8.3803,-0.076874
4.5013,-0.32659
3.6109,-0.59829
4.0332,4.7045
3.7135,-0.72961
3.3288,-0.0064347
2.8886,-0.31885
-0.6416,1.4293
2.6464,-0.18344
2.9898,-0.25748
3.8625,0.70279
2.9349,-0.35927
2.6218,-1.8509
1.6705,1.8713
0.51462,2.9624
4.1322,0.35463
-1.249,-2.1027
4.6108,0.96702
1.9099,0.79608
2.4784,-0.50993
3.0321,-1.2903
3.4644,2.026
2.6524,-0.22772
1.8104,1.8593
2.7005,-2.2919
3.0209,0.67573
5.0332,-0.35091
4.0698,-0.28633
-2.9246,-6.66
1.5766,-0.53383
3.1255,0.50676
4.231,0.36926
-10.883,5.1356
3.4496,-1.6491
4.1216,1.453
2.6509,0.0080638
3.6212,-0.81012
3.4348,-0.3033
2.1201,-0.9342
4.5512,1.7648
3.7774,0.44339
3.9501,2.5513
4.4428,-0.76874
3.1699,0.77157
2.2118,0.20196
3.3873,1.6727
3.7318,-0.055507
2.7237,0.37792
3.6662,1.803
2.1622,-0.64797
4.3959,0.16641
2.0798,-0.38507
3.3107,0.1753
2.8021,0.87005
3.9033,-0.22887
2.6465,-1.3605
1.7358,1.5855
3.7057,0.20608
-0.5933,-1.148
3.3886,0.57815
3.4614,-0.1356
2.3599,-1.0585
1.0596,-0.38066
1.6164,-0.48417
0.28591,-2.325
2.6965,0.82572
0.60125,1.1504
1.7651,0.16832
5.8651,3.411
4.0684,0.12882
2.0056,0.69087
1.4842,2.4972
2.3309,1.153
6.077,-2.5379
3.8476,-1.6544
3.0684,-0.92694
1.8729,0.90521
3.7183,-1.2048
2.8341,-1.3042
3.6092,0.0067296
3.2112,-2.1172
2.9461,-0.6999
1.7782,0.14235
5.2694,-0.16097
-0.18018,0.47403
2.2068,0.064659
2.0204,-1.8157
2.6646,0.83945
2.6266,0.2233
3.4565,0.26652
0.71927,0.45058
3.6422,-0.67459
5.6225,0.84744
1.8725,1.3614
3.8614,0.71189
4.0301,1.143
3.2347,-0.14654
3.385,0.36447
2.3426,-2.3838
3.5613,0.2405
3.5354,0.030203
2.6964,-2.3626
4.2356,0.096072
-0.42573,1.8847
3.8886,-0.93773
-1.6121,1.0489
2.4275,3.2268
2.7244,0.42815
2.1997,0.92261
6.2698,-2.8509
2.5847,-0.56337
3.2724,3.1297
2.9602,2.7482
1.6373,0.51849
1.8567,1.3638
0.50237,1.7969
3.0256,1.8443
-3.2555,16.791
2.3585,-2.3665
1.564,-0.89694
3.6082,-0.48051
-0.04932,1.8043
7.954,-2.0141
1.0684,0.85021
3.8703,3.1629
0.84927,-0.026482
4.2822,-1.211
0.95839,-0.92145
3.1001,-0.34558
6.9075,8.5312
1.6951,1.6134
3.1001,-0.55324
2.2644,-1.4383
3.681,1.0284
4.9701,1.5252
2.581,-0.18808
5.5028,1.4449
-7.5376,-0.70613
4.5738,-0.50955
3.612,5.3621
2.5402,2.3969
3.6324,0.085198
3.7772,1.0874
6.9409,2.4512
2.5198,0.040517
3.4844,-0.20386
4.1268,0.77143
3.0297,-0.053149
3.9268,1.8565
4.5365,2.1153
2.6188,1.179
3.3473,-0.38499
3.868,-2.7097
3.4754,-0.80701
2.7891,0.10527
3.2433,-0.40616
-1.5767,1.4867
4.1629,2.4223
4.3827,-0.7412
1.0509,4.4037
2.039,3.3871
2.5622,1.5044
1.7005,-1.8357
3.8926,-1.2791
3.0769,-2.257
2.4558,-0.62593
2.3187,-1.402
0.51978,-1.1976
3.7971,-0.87213
2.658,2.9656
2.8626,-0.048865
2.6606,-3.4412
4.3496,0.010515
2.7864,0.65516
1.9455,-2.9082
3.5872,1.1038
2.3688,1.4187
2.7395,0.44198
2.4127,1.9823
3.3604,-0.48599
4.5778,-0.19779
2.4326,-7.5738
3.7624,-0.37328
2.8123,4.3085
-3.4698,0.67752
-8.4692,-3.6145
-3.1229,-0.35467
-3.921,-0.87869
-0.97926,-0.58706
-2.6053,-0.077136
-4.5652,0.13008
-4.3025,-0.30659
5.1876,0.43163
-3.3671,-0.25108
-2.7575,0.033895
2.6705,-4.2041
-1.5586,-1.9552
-3.3229,0.89957
-5.1902,-0.68716
-2.5438,1.0601
-3.2732,0.13961
-5.758,2.5068
-2.4884,1.0518
-4.749,-0.47647
-2.1348,-1.6278
-2.1906,0.77327
-2.1753,0.67067
-2.2206,1.461
-3.4664,0.97683
-4.8365,1.4409
-3.5488,0.33122
-3.4547,0.45439
-2.2401,-0.89017
-2.6215,0.48337
-31.821,30.098
-5.1059,2.4442
-5.0175,2.6525
-2.915,0.22224
-2.5218,-1.4389
-2.9518,-0.31524
-5.0871,9.1886
-2.6045,2.0198
-3.7769,0.43023
-2.6655,0.06115
0.78893,-0.88164
-1.3529,0.33024
-2.7707,0.27519
-3.1605,-1.1343
-2.2689,0.77212
0.91379,-3.1126
-2.2029,-0.87796
-2.7173,-0.20847
-3.1734,0.19762
-4.481,-2.7462
-3.3321,-2.1649
-3.4089,1.2508
-3.1302,0.50862
-2.889,1.2717
-8.1385,-0.51494
-3.7244,-0.18769
-3.7337,-0.61654
-3.7516,0.17186
-3.0165,0.31964
-3.0152,1.7419
0.35765,0.82214
4.6941,1.7261
-3.3345,-0.94743
-1.5261,-0.83625
-3.8679,-0.5214
-2.7701,-0.47641
-3.1249,0.38519
-1.3691,0.4152
-1.0263,0.097078
-4.3645,-0.78577
-4.3435,-12.319
-3.8291,0.53848
-2.7725,6.6758
-2.7149,-1.2524
-6.8456,-0.72465
-7.7003,3.3228
-2.5986,0.33656
-0.89149,-0.48709
-2.7841,0.15298
-1.3129,1.1381
-3.291,0.51976
-2.2197,-0.028539
-0.28389,-0.37044
-2.3261,-1.2643
-4.0966,-0.67472
-1.4125,-2.5451
-1.5469,0.85708
-2.2141,0.46458
-1.5246,0.65717
-3.3843,-1.0845
-1.3445,-0.3549
-3.5735,-0.67346
-2.153,0.092852
-6.4725,4.8912
-2.3431,-0.00093657
-3.0259,-0.091045
-4.1508,1.0922
-2.3604,0.75724
-4.1721,-1.3336
2.1968,4.2956
-3.7232,1.5073
-1.5321,-1.2443
-1.1753,0.13155
-3.6472,0.52156
-0.59865,-0.28238
5.3821,-0.42207
-3.3607,1.7569
-3.6089,-1.0782
-4.4558,-0.51941
-0.25219,0.48716
-4.4134,-1.2735
-2.0299,0.64927
-3.2721,0.92005
-2.3234,0.73592
-1.9413,0.033758
-3.8982,-0.87596
-2.9399,1.3816
-2.4799,0.58842
-4.8972,0.68203
-5.4501,1.2608
-4.2867,3.868
-0.14618,0.22142
-24.092,3.2298
-7.8298,5.4915
-2.6476,0.239
-2.9717,-1.4448
-3.0037,0.24511
-3.4156,0.1272
-2.8219,-0.24832
-1.4087,-3.8849
-10.109,8.6905
-0.54308,2.2194
-3.1837,0.66787
-2.9917,-2.401
-2.5458,-0.82389
-3.6562,0.70807
-2.2664,-0.21507
-0.92631,-1.6274
-2.7392,-2.4808
-3.7369,-0.87521
-2.2936,-1.1764
-3.3274,-0.28823
-1.6872,1.1487
-4.4864,0.63412
-3.4745,1.0356
-2.6774,-0.35226
-2.2597,0.479
-3.0148,-0.035896
-2.0787,-1.1146
0.1248,-1.4939
-3.032,-0.3533
-2.1816,0.87385
-3.0312,0.91715
-1.7763,-1.2873
-4.0843,0.19596
-4.6217,0.81971
-2.2623,-0.31696
-2.2526,-0.24293
-4.2311,0.54842
-2.0335,-2.4389
-3.5409,2.1587
-6.2385,9.3236
-3.7065,2.8729
-3.5345,-0.80657
-4.5959,0.17613
-3.1623,0.81487
-2.4573,0.78008
-2.5891,-0.49223
-2.8225,0.84053
-3.2508,-0.39174
-3.4023,0.14114
-2.0384,0.6456
-2.7723,1.1558
-3.5525,-0.4548
-3.2796,0.13251
-2.0746,-0.29818
-4.5897,-0.51041
-6.3434,4.3096
-4.1157,0.68186
-2.2166,1.7077
-2.579,-1.2266
-3.8744,-5.1153
-0.035772,-5.5666
-2.9366,-0.56781
-3.2032,-0.34342
-4.4351,0.34649
-1.7715,-0.44174
-3.5273,0.42787
-2.826,-1.3644
-0.69922,-0.95797
-3.9747,-0.30597
-1.8394,-0.12301
-2.4702,-0.30205
-4.3368,1.9033
-1.6055,-1.2089
2.3664,-2.0584
-2.8263,-0.69728
2.2542,-3.8397
-4.4633,-0.51657
-2.198,0.10659
-3.5175,-2.8914
-10.827,-0.95724
-2.0423,1.3027
0.48685,2.6977
-1.3837,-1.2844
-5.8761,-1.515
-4.6073,-0.44154
-2.5966,0.53996
-3.1862,-1.1707
-2.2947,0.057988
-1.8739,-0.71239
-1.6686,1.2718
-1.368,-0.66369
-1.4469,0.58238
-3.8039,-1.8206
-8.4575,-2.3714
-1.5017,-1.2976
-5.5023,1.7946
-3.2228,0.5345
-2.4424,2.8422
-2.951,-0.77256
-3.175,0.3451
-5.7952,0.47607
-2.9178,0.20233
-4.2366,0.65696
-1.646,-1.0543
-2.3885,-0.93028
-5.0851,-0.18028
-2.011,0.52295
-0.87732,-1.5538
-6.1178,-0.58655
-7.5981,-0.032286
-3.0372,0.34083
-3.7891,-1.0875
-2.8714,1.1706
-2.6039,1.469
-2.602,-0.76937
-4.3338,0.5622
-1.8625,-0.19699
-4.2269,0.69243
-0.90438,-0.087371
-2.4322,0.081475
-2.8929,-0.67746
-2.8893,0.66264
-11.481,-17.549
-3.5258,0.14052
-13.973,-0.20597
-4.0897,1.9387
-4.3156,-0.050814
-2.9731,1.1678
-2.6398,-0.21207
-4.1254,-0.63386
-3.4062,1.19
-5.8181,-0.64742
-2.963,-0.007147
-2.3545,0.38153
-2.4948,0.59942
-2.0686,0.14959
-3.3961,-0.41008
-2.7451,-0.69279
-3.6257,0.25592
-6.3415,2.4201
-3.3834,-0.64442
-6.1183,-0.15222
2.1417,2.684
-2.2682,0.11583
-4.1288,0.13315
-2.7717,-0.45979
-4.0553,0.51276
0.50974,1.2167
-3.0589,-2.611
1.5699,8.672
-3.1103,-0.75089
-3.4324,0.55145
-4.4668,-1.1367
-4.3716,-0.53914
-5.4463,-2.3279
-1.8479,-8.9498
-3.2094,-0.297
-2.0972,-0.44885
-3.7827,1.1027
-3.944,1.8504
-5.2854,1.6161
-1.972,5.8062
-4.3664,-1.9294
-4.5977,-1.4848
0.26472,-2.5488
-3.5839,-0.33652
-2.5208,-1.0251
-3.903,0.35235
-4.0109,2.4902
-4.2486,0.2545
-2.1365,-0.39286
-5.4487,-2.5061
-2.9392,-0.86661
-7.6465,5.0785
-4.5338,-1.3221
-2.3909,0.20852
-2.5525,2.359
1.8821,1.2452
3.0075,0.32898
2.9818,0.32129
2.9459,0.31103
2.9237,0.29052
2.91,0.27001
2.8964,0.24693
2.8759,0.2136
2.8588,0.19821
2.8314,0.1777
2.8126,0.15719
2.7921,0.12385
2.787,0.093087
2.787,0.062315
2.7938,0.034109
2.8109,0.021289
2.8348,0.021289
2.857,0.021289
2.8741,0.023853
2.9066,0.023853
2.9323,0.034109
2.9494,0.041802
2.9716,0.049494
2.9921,0.052058
3.016,0.054622
3.0331,0.06744
3.0468,0.095647
3.0485,0.12385
3.0502,0.1418
3.0212,0.049494
3.0041,0.013597
2.9887,-0.012045
2.9596,-0.063327
2.9682,-0.037685
2.9784,-0.024865
2.9408,-0.076147
2.9237,-0.10179
2.8964,-0.10948
2.8724,-0.11717
2.8553,-0.10435
2.8382,-0.07358
2.8622,-0.042813
2.8827,-0.014609
2.8929,0.0084687
2.8365,-0.078713
2.8365,-0.10435
2.8382,-0.12487
2.8519,-0.14025
2.8776,-0.15051
2.9117,-0.15051
2.9323,-0.14794
2.9528,-0.12743
2.9682,-0.10948
2.9818,-0.0864
2.9955,-0.068453
3.0058,-0.047942
3.016,-0.037685
3.0331,-0.022301
3.0536,-0.012045
3.0707,-0.006916
3.0912,0.00077633
3.1083,0.039238
3.1152,0.085393
3.1152,0.11103
3.1015,0.14437
2.9511,0.2136
2.9596,0.2418
2.9716,0.24949
2.9921,0.24949
3.0075,0.25462
3.016,0.25462
3.0126,0.23411
2.9972,0.21873
2.9801,0.20591
2.9716,0.20591
2.9579,0.19821
2.8365,0.080267
2.8365,0.095647
2.8468,0.098213
3.0246,0.34437
3.0502,0.3418
3.0707,0.33155
3.0947,0.30847
3.11,0.28795
3.1186,0.25719
3.1306,0.23667
3.1391,0.20847
3.1494,0.18283
3.1562,0.15719
3.1699,0.12642
3.1835,0.082827
3.1938,0.049494
3.2058,0.023853
3.2143,-0.0017877
3.2246,-0.012045
3.2348,-0.035121
3.2605,-0.05307
3.2741,-0.07358
3.2929,-0.094093
3.016,-0.047942
3.0331,-0.063327
3.0434,-0.094093
3.0588,-0.12487
3.0656,-0.15051
3.0673,-0.1582
3.134,-0.16589
3.1135,-0.16589
3.0912,-0.17102
3.0776,-0.18384
3.0588,-0.19153
3.0468,-0.19153
3.0297,-0.19666
3.0058,-0.19666
2.987,-0.19666
2.9699,-0.20179
2.9545,-0.21205
2.9374,-0.22743
2.963,-0.21973
2.9801,-0.21973
2.9989,-0.21973
3.0126,-0.22487
2.9853,-0.23512
2.963,-0.24538
2.9528,-0.25307
2.9459,-0.27871
2.975,-0.25563
2.9972,-0.25051
3.0212,-0.25051
3.0382,-0.24794
3.0656,-0.24794
3.0844,-0.24794
3.1135,-0.24794
3.134,-0.24794
3.1596,-0.24794
3.0912,-0.26076
3.0947,-0.28384
3.0929,-0.29923
2.8895,-0.14709
2.9015,-0.14965
3.2468,-0.041959
2.9716,0.31958
2.9579,0.31445
2.9323,0.29907
